{
  "session": {
    "new": true,
    "sessionId": "SessionId.d565d05c-698a-455a-857f-af5ad655ccfe",
    "application": {
      "applicationId": "amzn1.ask.skill.640a95ca-25d0-45fb-97b0-e5e9ba1a154e"
    },
    "attributes": {},
    "user": {
      "userId": "amzn1.ask.account.AEPFJJGWHQEBXUHOL5THOKKK3SIJPEVESMRSJSS2IOXHBDCLR523QKR6XTK3S4V6CGMVNYQBAMLSL5HGFVX4NCO4A2KUGJGULZXMVKA7J2IL6BZYTPQCVA5WFD4SD2ERICE2SRUFAULITNMB2J3J6JHZC7DE4QWD7IRU662MEBF4DQZNGJHFMHYLKJ7WBFF4FEQ6D5L4NBV5MHI"
    }
  },
  "request": {
    "type": "IntentRequest",
    "requestId": "EdwRequestId.1da456e7-ba17-4d8c-ac41-4a6644b79137",
    "intent": {
      "name": "GetAudioTranslationsIntent",
      "slots": {
        "Chapter": {
          "name": "Part",
          "value": "6"
        }
      }
    },
    "locale": "en-US",
    "timestamp": "2018-01-12T05:00:24Z"
  },
  "context": {
    "AudioPlayer": {
      "playerActivity": "IDLE"
    },
    "System": {
      "application": {
        "applicationId": "amzn1.ask.skill.640a95ca-25d0-45fb-97b0-e5e9ba1a154e"
      },
      "user": {
        "userId": "amzn1.ask.account.AEPFJJGWHQEBXUHOL5THOKKK3SIJPEVESMRSJSS2IOXHBDCLR523QKR6XTK3S4V6CGMVNYQBAMLSL5HGFVX4NCO4A2KUGJGULZXMVKA7J2IL6BZYTPQCVA5WFD4SD2ERICE2SRUFAULITNMB2J3J6JHZC7DE4QWD7IRU662MEBF4DQZNGJHFMHYLKJ7WBFF4FEQ6D5L4NBV5MHI"
      },
      "device": {
        "supportedInterfaces": {}
      }
    }
  },
  "version": "1.0"
}


