{
  "session": {
    "new": true,
    "sessionId": "SessionId.8a1fac19-a915-4c0d-b943-caebf54f1885",
    "application": {
      "applicationId": "amzn1.ask.skill.640a95ca-25d0-45fb-97b0-e5e9ba1a154e"
    },
    "attributes": {},
    "user": {
      "userId": "amzn1.ask.account.AEPFJJGWHQEBXUHOL5THOKKK3SIJPEVESMRSJSS2IOXHBDCLR523QKR6XTK3S4V6CGMVNYQBAMLSL5HGFVX4NCO4A2KUGJGULZXMVKA7J2IL6BZYTPQCVA5WFD4SD2ERICE2SRUFAULITNMB2J3J6JHZC7DE4QWD7IRU662MEBF4DQZNGJHFMHYLKJ7WBFF4FEQ6D5L4NBV5MHI"
    }
  },
  "request": {
    "type": "IntentRequest",
    "requestId": "EdwRequestId.e1a70c5c-7512-4e73-a60e-83ef1c905dec",
    "intent": {
      "name": "GetChapterVerseIntent",
      "slots": {
        "Chapter": {
          "name": "Chapter",
          "value": "9"
        },
        "Verse": {
          "name": "Verse",
          "value": "22"
        }
      }
    },
    "locale": "en-US",
    "timestamp": "2018-01-12T01:04:49Z"
  },
  "context": {
    "AudioPlayer": {
      "playerActivity": "IDLE"
    },
    "System": {
      "application": {
        "applicationId": "amzn1.ask.skill.640a95ca-25d0-45fb-97b0-e5e9ba1a154e"
      },
      "user": {
        "userId": "amzn1.ask.account.AEPFJJGWHQEBXUHOL5THOKKK3SIJPEVESMRSJSS2IOXHBDCLR523QKR6XTK3S4V6CGMVNYQBAMLSL5HGFVX4NCO4A2KUGJGULZXMVKA7J2IL6BZYTPQCVA5WFD4SD2ERICE2SRUFAULITNMB2J3J6JHZC7DE4QWD7IRU662MEBF4DQZNGJHFMHYLKJ7WBFF4FEQ6D5L4NBV5MHI"
      },
      "device": {
        "supportedInterfaces": {}
      }
    }
  },
  "version": "1.0"
}
