{
  "session": {
    "sessionId": "SessionId.Session1",
    "application": {
      "applicationId": "amzn1.echo-sdk-ams.app.640a95ca-25d0-45fb-97b0-e5e9ba1a154e"
    },
    "user": {
      "userId": "amzn1.ask.account.testaccount1",
      "delete_me": "arn:aws:iam::332566864701:user/debugUser"
    },
    "new": true
  },
  "request": {
    "type": "IntentRequest",
    "requestId": "EdwRequestId.TestSession1",
    "timestamp": "2016-05-19T01:07:55Z",
    "intent": {
      "name": "LaunchIntent"
    },
    "locale": "en-US"
  },
  "version": "1.0"
}
