{
  "intents": [
    {
      "intent": "GetVerseIntent"
    },
    {
      "intent": "GetStudyVerseIntent"
    },
    {
      "intent": "AMAZON.CancelIntent"
    },
    {
      "intent": "AMAZON.HelpIntent"
    },
    {
      "intent": "AMAZON.PauseIntent"
    },
    {
      "intent": "AMAZON.ResumeIntent"
    },
    {
      "intent": "AMAZON.StopIntent"
    }
  ]
}
